<?xml version="1.0" encoding="UTF-8" standalone="no"?>
<!-- Created with Inkscape (http://www.inkscape.org/) -->

<svg
   xmlns:dc="http://purl.org/dc/elements/1.1/"
   xmlns:cc="http://creativecommons.org/ns#"
   xmlns:rdf="http://www.w3.org/1999/02/22-rdf-syntax-ns#"
   xmlns:svg="http://www.w3.org/2000/svg"
   xmlns="http://www.w3.org/2000/svg"
   xmlns:xlink="http://www.w3.org/1999/xlink"
   xmlns:sodipodi="http://sodipodi.sourceforge.net/DTD/sodipodi-0.dtd"
   xmlns:inkscape="http://www.inkscape.org/namespaces/inkscape"
   width="579.05139"
   height="592.93292"
   id="svg2"
   version="1.1"
   inkscape:version="0.48.4 r9939"
   sodipodi:docname="Marsdice.svg">
  <defs
     id="defs4">
    <inkscape:perspective
       sodipodi:type="inkscape:persp3d"
       inkscape:vp_x="10333.863 : -2355.1392 : 1"
       inkscape:vp_y="0 : 9323.4564 : 0"
       inkscape:vp_z="-4286.853 : -2677.9372 : 1"
       inkscape:persp3d-origin="55275.185 : -4483.0835 : 1"
       id="perspective3769" />
    <linearGradient
       id="linearGradient3755">
      <stop
         style="stop-color:#ffb98a;stop-opacity:1;"
         offset="0"
         id="stop3757" />
      <stop
         id="stop3767"
         offset="0.20923734"
         style="stop-color:#ffc199;stop-opacity:1;" />
      <stop
         id="stop3765"
         offset="0.85897434"
         style="stop-color:#ff802d;stop-opacity:1;" />
      <stop
         style="stop-color:#ff6704;stop-opacity:1;"
         offset="1"
         id="stop3759" />
    </linearGradient>
    <radialGradient
       inkscape:collect="always"
       xlink:href="#linearGradient3755"
       id="radialGradient3763"
       cx="541.15387"
       cy="678.53772"
       fx="541.15387"
       fy="678.53772"
       r="192.22964"
       gradientTransform="matrix(-0.97276415,0.21745503,-0.51393837,-0.68003368,1214.0807,766.66693)"
       gradientUnits="userSpaceOnUse" />
    <radialGradient
       inkscape:collect="always"
       xlink:href="#linearGradient3755"
       id="radialGradient3799"
       gradientUnits="userSpaceOnUse"
       gradientTransform="matrix(-0.97276415,0.21745503,-0.51393837,-0.68003368,1214.0807,766.66693)"
       cx="541.15387"
       cy="678.53772"
       fx="541.15387"
       fy="678.53772"
       r="192.22964" />
  </defs>
  <sodipodi:namedview
     id="base"
     pagecolor="#ffffff"
     bordercolor="#666666"
     borderopacity="1.0"
     inkscape:pageopacity="0.0"
     inkscape:pageshadow="2"
     inkscape:zoom="0.22627417"
     inkscape:cx="463.94818"
     inkscape:cy="100.00199"
     inkscape:document-units="px"
     inkscape:current-layer="layer1"
     showgrid="false"
     fit-margin-top="0"
     fit-margin-left="0"
     fit-margin-right="0"
     fit-margin-bottom="0"
     inkscape:window-width="651"
     inkscape:window-height="414"
     inkscape:window-x="1748"
     inkscape:window-y="225"
     inkscape:window-maximized="0" />
  <metadata
     id="metadata7">
    <rdf:RDF>
      <cc:Work
         rdf:about="">
        <dc:format>image/svg+xml</dc:format>
        <dc:type
           rdf:resource="http://purl.org/dc/dcmitype/StillImage" />
        <dc:title />
      </cc:Work>
    </rdf:RDF>
  </metadata>
  <g
     inkscape:label="Ebene 1"
     inkscape:groupmode="layer"
     id="layer1"
     transform="translate(-96.342656,-200.67528)">
    <g
       sodipodi:type="inkscape:box3d"
       style="fill:#ff6704;fill-opacity:1;stroke:#000000;stroke-width:10;stroke-linecap:round;stroke-linejoin:round;stroke-miterlimit:4;stroke-opacity:1;stroke-dasharray:none"
       id="g3785"
       inkscape:perspectiveID="#perspective3769"
       inkscape:corner0="-5.3489374 : -0.90634964 : 0 : 1"
       inkscape:corner7="-5.4915628 : -1.0656437 : 0.23160637 : 1"
       inkscape:transform-center-x="170.14757"
       inkscape:transform-center-y="130.37281">
      <path
         sodipodi:type="inkscape:box3dside"
         id="path3791"
         style="fill:#8686bf;fill-rule:evenodd;stroke:none"
         inkscape:box3dsidetype="3"
         d="m 96.342952,716.37032 328.142198,77.23788 0,-330.65802 -328.142198,-88.08195 z" />
      <path
         sodipodi:type="inkscape:box3dside"
         id="path3793"
         style="fill:#d7d7ff;fill-rule:evenodd;stroke:none"
         inkscape:box3dsidetype="14"
         d="m 424.48515,793.6082 0,-330.65802 250.90922,-163.57205 0,348.63531 z" />
      <path
         sodipodi:type="inkscape:box3dside"
         id="path3795"
         style="fill:#afafde;fill-rule:evenodd;stroke:none"
         inkscape:box3dsidetype="13"
         d="M 96.342952,374.86823 424.48515,462.95018 675.39437,299.37813 337.48522,200.67525 z" />
      <path
         sodipodi:type="inkscape:box3dside"
         id="path3789"
         style="fill:#1d8629;fill-opacity:1;fill-rule:evenodd;stroke:none"
         inkscape:box3dsidetype="5"
         d="M 96.342952,716.37032 424.48515,793.6082 675.39437,648.01344 337.48522,561.38738 z" />
      <path
         sodipodi:type="inkscape:box3dside"
         id="path3787"
         style="fill:#2fb131;fill-opacity:1;fill-rule:evenodd;stroke:none"
         inkscape:box3dsidetype="6"
         d="m 96.342952,716.37032 0,-341.50209 241.142268,-174.19298 0,360.71213 z" />
      <path
         sodipodi:type="inkscape:box3dside"
         id="path3797"
         style="fill:#5fd75e;fill-opacity:1;fill-rule:evenodd;stroke:none"
         inkscape:box3dsidetype="11"
         d="m 337.48522,561.38738 337.90915,86.62606 0,-348.63531 -337.90915,-98.70288 z" />
    </g>
    <path
       sodipodi:type="arc"
       style="fill:url(#radialGradient3799);fill-opacity:1;stroke:#000000;stroke-width:10;stroke-miterlimit:4;stroke-opacity:1;stroke-dasharray:none"
       id="path2985"
       sodipodi:cx="395.80109"
       sodipodi:cy="473.79074"
       sodipodi:rx="187.22964"
       sodipodi:ry="115.71429"
       d="m 583.03073,473.79074 c 0,63.90724 -83.82557,115.71429 -187.22964,115.71429 -103.40408,0 -187.22965,-51.80705 -187.22965,-115.71429 0,-63.90723 83.82557,-115.71429 187.22965,-115.71429 103.40407,0 187.22964,51.80706 187.22964,115.71429 z"
       transform="matrix(0.77483444,0,0,1.2537084,77.827056,-85.408864)" />
  </g>
</svg>
